{
  "project_info": {
    "project_number": "1045682012635",
    "firebase_url": "https://slabble-a1065.firebaseio.com",
    "project_id": "slabble-a1065",
    "storage_bucket": "slabble-a1065.appspot.com"
  },
  "client": [
    {
      "client_info": {
        "mobilesdk_app_id": "1:1045682012635:android:04a067581b82599c6f27fe",
        "android_client_info": {
          "package_name": "com.slabble"
        }
      },
      "oauth_client": [
        {
          "client_id": "1045682012635-ot91ri37aidcjhcj7o7maacgmmvk2n5i.apps.googleusercontent.com",
          "client_type": 1,
          "android_info": {
            "package_name": "com.slabble",
            "certificate_hash": "aba46a77479fdc99a04508a66d9be638606e8e2f"
          }
        },
        {
          "client_id": "1045682012635-trngn5fecucb3m1uvq1h3jtfmcgjg9hr.apps.googleusercontent.com",
          "client_type": 3
        }
      ],
      "api_key": [
        {
          "current_key": "AIzaSyAmFNKwVdBv7SHdYyMgKNXERX4swztyi4Y"
        }
      ],
      "services": {
        "appinvite_service": {
          "other_platform_oauth_client": [
            {
              "client_id": "1045682012635-trngn5fecucb3m1uvq1h3jtfmcgjg9hr.apps.googleusercontent.com",
              "client_type": 3
            }
          ]
        }
      }
    }
  ],
  "configuration_version": "1"
}